2250047,Attendee 2250047
2238128,Attendee 2238128
2219152,Attendee 2219152
2219092,Attendee 2219092
2219020,Attendee 2219020
2218995,Attendee 2218995
2219176,Attendee 2219176
2219023,Attendee 2219023
2219024,Attendee 2219024
2219105,Attendee 2219105
2223748,Attendee 2223748
2223749,Attendee 2223749
2219084,Attendee 2219084
2219069,Attendee 2219069
2219070,Attendee 2219070
2219080,Attendee 2219080
2219071,Attendee 2219071
2219202,Attendee 2219202
2219203,Attendee 2219203
2223735,Attendee 2223735
2219025,Attendee 2219025
2219059,Attendee 2219059
2219076,Attendee 2219076
2219177,Attendee 2219177
2219195,Attendee 2219195
2219187,Attendee 2219187
2219188,Attendee 2219188
2219058,Attendee 2219058
2219046,Attendee 2219046
2219156,Attendee 2219156
2219167,Attendee 2219167
2219192,Attendee 2219192
2219193,Attendee 2219193
2219185,Attendee 2219185
2219099,Attendee 2219099
2219083,Attendee 2219083
2223737,Attendee 2223737
2223738,Attendee 2223738
2219078,Attendee 2219078
2219004,Attendee 2219004
2219057,Attendee 2219057
2223736,Attendee 2223736
2219018,Attendee 2219018
2219019,Attendee 2219019
2219072,Attendee 2219072
2219073,Attendee 2219073
2219074,Attendee 2219074
2223733,Attendee 2223733
2223734,Attendee 2223734
2218980,Attendee 2218980
2250047,Attendee 2250047
2238128,Attendee 2238128
2219152,Attendee 2219152
2219092,Attendee 2219092
2219020,Attendee 2219020
2218995,Attendee 2218995
2219176,Attendee 2219176
2219023,Attendee 2219023
2219024,Attendee 2219024
2219105,Attendee 2219105
2223748,Attendee 2223748
2223749,Attendee 2223749
2219084,Attendee 2219084
2219069,Attendee 2219069
2219070,Attendee 2219070
2219080,Attendee 2219080
2219071,Attendee 2219071
2219202,Attendee 2219202
2219203,Attendee 2219203
2223735,Attendee 2223735
2219025,Attendee 2219025
2219059,Attendee 2219059
2219076,Attendee 2219076
2219177,Attendee 2219177
2219195,Attendee 2219195
2219187,Attendee 2219187
2219188,Attendee 2219188
2219058,Attendee 2219058
2219046,Attendee 2219046
2219156,Attendee 2219156
2219167,Attendee 2219167
2219192,Attendee 2219192
2219193,Attendee 2219193
2219185,Attendee 2219185
2219099,Attendee 2219099
2219083,Attendee 2219083
2223737,Attendee 2223737
2223738,Attendee 2223738
2219078,Attendee 2219078
2219004,Attendee 2219004
2219057,Attendee 2219057
2223736,Attendee 2223736
2219018,Attendee 2219018
2219019,Attendee 2219019
2219072,Attendee 2219072
2219073,Attendee 2219073
2219074,Attendee 2219074
2223733,Attendee 2223733
2223734,Attendee 2223734
2218980,Attendee 2218980
